Year,Male_Amount,Female_Amount,Total,MaleDepRt,FemaDepRt,TotalRate
1997,30,108,138,13.24,15.51,14.26
1998,37,113,150,13.8,17.68,15.94
1999,27,127,154,15.52,21.04,18.17
2000,45,140,185,17.06,10.09,13.99
2001,26,132,158,16.01,17.63,16.9
2002,41,142,183,17.13,20.59,18.78
2003,32,112,144,13.44,13.67,13.45
2004,41,105,146,12.53,15.68,13.52
2005,46,167,213,19.76,17.21,18.33
2006,64,227,291,26.61,25.19,25.78
2007,67,175,242,20.3,20.45,20.74
2008,64,218,282,25.03,20.05,23.85
2009,55,205,260,23.33,25.01,24.5
2010,73,240,313,27.13,27.93,27.33
2011,73,216,289,24.29,39.89,30.97
2012,63,215,278,30.03,35.78,32.78
2013,74,229,303,35.53,34.93,34.99
2014,61,207,268,38.93,38.5,38.7
2015,73,245,318,34.95,43.75,41.8
